…
One of the best libraries for text mining is
[`tidytext`](https://www.tidytextmining.com/)

``` r
library(tidytext)
library(janeaustenr)
library(dplyr)
library(stringr)

original_books <- austen_books() 

original_books  
```

    ## # A tibble: 73,422 x 2
    ##    text                  book               
    ##  * <chr>                 <fct>              
    ##  1 SENSE AND SENSIBILITY Sense & Sensibility
    ##  2 ""                    Sense & Sensibility
    ##  3 by Jane Austen        Sense & Sensibility
    ##  4 ""                    Sense & Sensibility
    ##  5 (1811)                Sense & Sensibility
    ##  6 ""                    Sense & Sensibility
    ##  7 ""                    Sense & Sensibility
    ##  8 ""                    Sense & Sensibility
    ##  9 ""                    Sense & Sensibility
    ## 10 CHAPTER 1             Sense & Sensibility
    ## # … with 73,412 more rows

Adding linenumbers and chapters

``` r
original_books <- original_books %>%   
  group_by(book) %>%
  mutate(linenumber = row_number(),
         chapter = cumsum(str_detect(text, regex("^chapter [\\divxlc]",
                                                 ignore_case = TRUE)))) %>%
  ungroup()

original_books
```

    ## # A tibble: 73,422 x 4
    ##    text                  book                linenumber chapter
    ##    <chr>                 <fct>                    <int>   <int>
    ##  1 SENSE AND SENSIBILITY Sense & Sensibility          1       0
    ##  2 ""                    Sense & Sensibility          2       0
    ##  3 by Jane Austen        Sense & Sensibility          3       0
    ##  4 ""                    Sense & Sensibility          4       0
    ##  5 (1811)                Sense & Sensibility          5       0
    ##  6 ""                    Sense & Sensibility          6       0
    ##  7 ""                    Sense & Sensibility          7       0
    ##  8 ""                    Sense & Sensibility          8       0
    ##  9 ""                    Sense & Sensibility          9       0
    ## 10 CHAPTER 1             Sense & Sensibility         10       1
    ## # … with 73,412 more rows

Getting words out of the sentences

``` r
tidy_books <- original_books %>%
  unnest_tokens(word, text)

tidy_books
```

    ## # A tibble: 725,055 x 4
    ##    book                linenumber chapter word       
    ##    <fct>                    <int>   <int> <chr>      
    ##  1 Sense & Sensibility          1       0 sense      
    ##  2 Sense & Sensibility          1       0 and        
    ##  3 Sense & Sensibility          1       0 sensibility
    ##  4 Sense & Sensibility          3       0 by         
    ##  5 Sense & Sensibility          3       0 jane       
    ##  6 Sense & Sensibility          3       0 austen     
    ##  7 Sense & Sensibility          5       0 1811       
    ##  8 Sense & Sensibility         10       1 chapter    
    ##  9 Sense & Sensibility         10       1 1          
    ## 10 Sense & Sensibility         13       1 the        
    ## # … with 725,045 more rows

Counting words

``` r
tidy_books %>%
  count(word, sort = TRUE) 
```

    ## # A tibble: 14,520 x 2
    ##    word      n
    ##    <chr> <int>
    ##  1 the   26351
    ##  2 to    24044
    ##  3 and   22515
    ##  4 of    21178
    ##  5 a     13408
    ##  6 her   13055
    ##  7 i     12006
    ##  8 in    11217
    ##  9 was   11204
    ## 10 it    10234
    ## # … with 14,510 more rows
…
## Stemming words

``` r
library(SnowballC)
library(corpus)

tidy_books_stemmed <- tidy_books %>%
  mutate(word_stemmed1 = corpus::stem_snowball(word, algorithm = "en"),
         word_stemmed2 = SnowballC::wordStem(word, language = "en"))

tidy_books_stemmed
```

    ## # A tibble: 217,609 x 6
    ##    book            linenumber chapter word      word_stemmed1 word_stemmed2
    ##    <fct>                <int>   <int> <chr>     <chr>         <chr>        
    ##  1 Sense & Sensib…          1       0 sense     sens          sens         
    ##  2 Sense & Sensib…          1       0 sensibil… sensibl       sensibl      
    ##  3 Sense & Sensib…          3       0 jane      jane          jane         
    ##  4 Sense & Sensib…          3       0 austen    austen        austen       
    ##  5 Sense & Sensib…          5       0 1811      1811          1811         
    ##  6 Sense & Sensib…         10       1 chapter   chapter       chapter      
    ##  7 Sense & Sensib…         10       1 1         1             1            
    ##  8 Sense & Sensib…         13       1 family    famili        famili       
    ##  9 Sense & Sensib…         13       1 dashwood  dashwood      dashwood     
    ## 10 Sense & Sensib…         13       1 settled   settl         settl        
    ## # … with 217,599 more rows
…
##tidy format
tidy_tweets <- tweets_df %>%
  unnest_tokens(word, text)

##filter out stopwords
tidy_tweets <- tidy_tweets %>%
  anti_join(stopwords_fin)


tidy_tweets %>%
  count(word, sort = TRUE) 
```

    ## # A tibble: 4,898 x 2
    ##    word        n
    ##    <chr>   <int>
    ##  1 naiset    679
    ##  2 t         580
    ##  3 https     575
    ##  4 co        557
    ##  5 rt        358
    ##  6 suomen     86
    ##  7 miehet     81
    ##  8 saa        77
    ##  9 p          51
    ## 10 naisten    47
    ## # … with 4,888 more rows
…
#### Actually stemming in Finnish

``` r
tidy_tweets_count <- tidy_tweets %>%
  count(word, sort = TRUE) 

tidy_tweets_stemmed <- 
  tidy_tweets_count %>% 
  mutate(word_stemmed1 = corpus::stem_snowball(word, algorithm = "fi"),
         word_stemmed2 = SnowballC::wordStem(word, language = "fi"))

tidy_tweets_stemmed
```

    ## # A tibble: 4,891 x 4
    ##    word             n word_stemmed1 word_stemmed2
    ##    <chr>        <int> <chr>         <chr>        
    ##  1 suomen          86 suome         suome        
    ##  2 miehet          81 miehe         miehe        
    ##  3 saa             77 saa           saa          
    ##  4 p               51 p             p            
    ##  5 naisten         47 naist         naist        
    ##  6 lapset          35 laps          laps         
    ##  7 juho            34 juho          juho         
    ##  8 koomikkokivi    33 koomikkokiv   koomikkokiv  
    ##  9 em              32 em            em           
    ## 10 päällä          32 pääl          pääl         
    ## # … with 4,881 more rows
…
total_words <- book_words %>% 
  group_by(book) %>% 
  summarize(total = sum(n))

book_words <- left_join(book_words, total_words)
```

    ## Joining, by = "book"

``` r
book_words
```

    ## # A tibble: 40,379 x 4
    ##    book              word      n  total
    ##    <fct>             <chr> <int>  <int>
    ##  1 Mansfield Park    the    6206 160460
    ##  2 Mansfield Park    to     5475 160460
    ##  3 Mansfield Park    and    5438 160460
    ##  4 Emma              to     5239 160996
    ##  5 Emma              the    5201 160996
    ##  6 Emma              and    4896 160996
    ##  7 Mansfield Park    of     4778 160460
    ##  8 Pride & Prejudice the    4331 122204
    ##  9 Emma              of     4291 160996
    ## 10 Pride & Prejudice to     4162 122204
    ## # … with 40,369 more rows
…
